GO:0031344	4.971187927010564e-69	34/35	biological_process: regulation of cell projection organization	F33D4.2a, C52E12.2b, F26C11.2, F59G1.5.1, AC7.2a.2, F11A10.3a, Y60A3A.1.2, F10G8.6, B0273.4a, T24B8.6, T07A5.6c, K07G5.1, F15A2.6a, B0240.3, W02D3.9.2, C14F5.5, F58A3.2c, F40E10.4, F55C7.7a, F36F2.5, ZK757.2, ZK792.6, F09B9.2b, T08H4.1, F45E10.1c, C01G10.11f.1, F28F9.1, D1007.1, M142.1c, ZC84.2, C05D11.4, C34F6.4, F53C11.8.2, K09C8.5
GO:0010975	2.8328869330036692e-52	26/27	biological_process: regulation of neuron projection development	C52E12.2b, F26C11.2, F11A10.3a, Y60A3A.1.2, B0273.4a, T24B8.6, T07A5.6c, K07G5.1, F15A2.6a, B0240.3, W02D3.9.2, F40E10.4, F55C7.7a, F36F2.5, ZK757.2, T08H4.1, F45E10.1c, C01G10.11f.1, F28F9.1, D1007.1, M142.1c, ZC84.2, C05D11.4, C34F6.4, F53C11.8.2, K09C8.5
GO:0010769	3.897538908150375e-48	24/25	biological_process: regulation of cell morphogenesis involved in differentiation	C52E12.2b, F26C11.2, F11A10.3a, Y60A3A.1.2, B0273.4a, T24B8.6, T07A5.6c, K07G5.1, F15A2.6a, B0240.3, W02D3.9.2, F40E10.4, F55C7.7a, F36F2.5, ZK757.2, F45E10.1c, C01G10.11f.1, F28F9.1, D1007.1, M142.1c, ZC84.2, C05D11.4, C34F6.4, F53C11.8.2
GO:0050770	3.897538908150375e-48	24/25	biological_process: regulation of axonogenesis	C52E12.2b, F26C11.2, F11A10.3a, Y60A3A.1.2, B0273.4a, T24B8.6, T07A5.6c, K07G5.1, F15A2.6a, B0240.3, W02D3.9.2, F40E10.4, F55C7.7a, F36F2.5, ZK757.2, F45E10.1c, C01G10.11f.1, F28F9.1, D1007.1, M142.1c, ZC84.2, C05D11.4, C34F6.4, F53C11.8.2
GO:0045664	8.296484085712418e-45	26/37	biological_process: regulation of neuron differentiation	C52E12.2b, F26C11.2, F11A10.3a, Y60A3A.1.2, B0273.4a, T24B8.6, T07A5.6c, K07G5.1, F15A2.6a, B0240.3, W02D3.9.2, F40E10.4, F55C7.7a, F36F2.5, ZK757.2, T08H4.1, F45E10.1c, C01G10.11f.1, F28F9.1, D1007.1, M142.1c, ZC84.2, C05D11.4, C34F6.4, F53C11.8.2, K09C8.5
GO:0050767	8.296484085712418e-45	26/37	biological_process: regulation of neurogenesis	C52E12.2b, F26C11.2, F11A10.3a, Y60A3A.1.2, B0273.4a, T24B8.6, T07A5.6c, K07G5.1, F15A2.6a, B0240.3, W02D3.9.2, F40E10.4, F55C7.7a, F36F2.5, ZK757.2, T08H4.1, F45E10.1c, C01G10.11f.1, F28F9.1, D1007.1, M142.1c, ZC84.2, C05D11.4, C34F6.4, F53C11.8.2, K09C8.5
GO:0051960	2.6067643947593637e-44	26/38	biological_process: regulation of nervous system development	C52E12.2b, F26C11.2, F11A10.3a, Y60A3A.1.2, B0273.4a, T24B8.6, T07A5.6c, K07G5.1, F15A2.6a, B0240.3, W02D3.9.2, F40E10.4, C34F6.4, F36F2.5, ZK757.2, T08H4.1, F45E10.1c, C01G10.11f.1, F28F9.1, D1007.1, M142.1c, ZC84.2, C05D11.4, F55C7.7a, F53C11.8.2, K09C8.5
GO:0022604	7.13751737917544e-43	25/36	biological_process: regulation of cell morphogenesis	C52E12.2b, F26C11.2, F11A10.3a, Y60A3A.1.2, F10G8.6, B0273.4a, T24B8.6, T07A5.6c, K07G5.1, F15A2.6a, B0240.3, W02D3.9.2, F40E10.4, F55C7.7a, F36F2.5, ZK757.2, F45E10.1c, C01G10.11f.1, F28F9.1, D1007.1, M142.1c, ZC84.2, C05D11.4, C34F6.4, F53C11.8.2
GO:0060284	5.072214209073208e-41	26/46	biological_process: regulation of cell development	C52E12.2b, F26C11.2, F11A10.3a, Y60A3A.1.2, B0273.4a, T24B8.6, T07A5.6c, K07G5.1, F15A2.6a, B0240.3, W02D3.9.2, F40E10.4, F55C7.7a, F36F2.5, ZK757.2, T08H4.1, F45E10.1c, C01G10.11f.1, F28F9.1, D1007.1, M142.1c, ZC84.2, C05D11.4, C34F6.4, F53C11.8.2, K09C8.5
GO:0030516	6.418670975784664e-40	20/21	biological_process: regulation of axon extension	C52E12.2b, F11A10.3a, Y60A3A.1.2, B0273.4a, T24B8.6, T07A5.6c, K07G5.1, F15A2.6a, B0240.3, F40E10.4, F36F2.5, F45E10.1c, C01G10.11f.1, F28F9.1, D1007.1, M142.1c, ZC84.2, C05D11.4, F55C7.7a, F53C11.8.2
GO:0061387	6.418670975784664e-40	20/21	biological_process: regulation of extent of cell growth	C52E12.2b, F11A10.3a, Y60A3A.1.2, B0273.4a, T24B8.6, T07A5.6c, K07G5.1, F15A2.6a, B0240.3, F40E10.4, F36F2.5, F45E10.1c, C01G10.11f.1, F28F9.1, D1007.1, M142.1c, ZC84.2, C05D11.4, F55C7.7a, F53C11.8.2
GO:0022603	3.345601059695565e-38	25/48	biological_process: regulation of anatomical structure morphogenesis	C52E12.2b, F26C11.2, F11A10.3a, Y60A3A.1.2, F10G8.6, B0273.4a, T24B8.6, T07A5.6c, K07G5.1, F15A2.6a, B0240.3, W02D3.9.2, F40E10.4, F55C7.7a, F36F2.5, ZK757.2, F45E10.1c, C01G10.11f.1, F28F9.1, D1007.1, M142.1c, ZC84.2, C05D11.4, C34F6.4, F53C11.8.2
GO:0001558	2.583935694421344e-35	20/27	biological_process: regulation of cell growth	C52E12.2b, F11A10.3a, Y60A3A.1.2, B0273.4a, T24B8.6, T07A5.6c, K07G5.1, F15A2.6a, B0240.3, F40E10.4, F36F2.5, F45E10.1c, C01G10.11f.1, F28F9.1, D1007.1, M142.1c, ZC84.2, C05D11.4, F55C7.7a, F53C11.8.2
GO:0045595	3.8570529528244504e-35	27/78	biological_process: regulation of cell differentiation	C52E12.2b, F26C11.2, F11A10.3a, Y60A3A.1.2, B0273.4a, T24B8.6, T07A5.6c, K07G5.1, F15A2.6a, B0240.3, W02D3.9.2, F40E10.4, F55C7.7a, F36F2.5, ZK757.2, ZK792.6, T08H4.1, F45E10.1c, C01G10.11f.1, F28F9.1, D1007.1, M142.1c, ZC84.2, C05D11.4, C34F6.4, F53C11.8.2, K09C8.5
GO:0008361	1.587651766623987e-32	20/33	biological_process: regulation of cell size	C52E12.2b, F11A10.3a, Y60A3A.1.2, B0273.4a, T24B8.6, T07A5.6c, K07G5.1, F15A2.6a, B0240.3, F40E10.4, F36F2.5, F45E10.1c, C01G10.11f.1, F28F9.1, D1007.1, M142.1c, ZC84.2, C05D11.4, F55C7.7a, F53C11.8.2
GO:0032535	3.941019920493789e-29	21/52	biological_process: regulation of cellular component size	C52E12.2b, F11A10.3a, Y60A3A.1.2, B0273.4a, T24B8.6, T07A5.6c, K07G5.1, F15A2.6a, B0240.3, F40E10.4, F36F2.5, ZK757.2, F45E10.1c, C01G10.11f.1, F28F9.1, D1007.1, M142.1c, ZC84.2, C05D11.4, F55C7.7a, F53C11.8.2
GO:0051128	9.612620280445119e-29	34/258	biological_process: regulation of cellular component organization	F33D4.2a, C52E12.2b, F26C11.2, F59G1.5.1, AC7.2a.2, F11A10.3a, Y60A3A.1.2, F10G8.6, B0273.4a, T24B8.6, T07A5.6c, K07G5.1, F15A2.6a, B0240.3, W02D3.9.2, C14F5.5, F40E10.4, F58A3.2c, C34F6.4, F36F2.5, ZK757.2, ZK792.6, F09B9.2b, T08H4.1, F45E10.1c, C01G10.11f.1, F28F9.1, D1007.1, M142.1c, ZC84.2, C05D11.4, F55C7.7a, F53C11.8.2, K09C8.5
GO:0090066	6.533758941710907e-28	21/58	biological_process: regulation of anatomical structure size	C52E12.2b, F11A10.3a, Y60A3A.1.2, B0273.4a, T24B8.6, T07A5.6c, K07G5.1, F15A2.6a, B0240.3, F40E10.4, F36F2.5, ZK757.2, F45E10.1c, C01G10.11f.1, F28F9.1, D1007.1, M142.1c, ZC84.2, C05D11.4, F55C7.7a, F53C11.8.2
GO:0048699	9.301050542444408e-22	28/248	biological_process: generation of neurons	C52E12.2b, F26C11.2, F11A10.3a, Y60A3A.1.2, B0273.4a, T24B8.6, T07A5.6c, K07G5.1, F15A2.6a, B0240.3, W02D3.9.2, F40E10.4, F58A3.2c, C34F6.4, F36F2.5, ZK757.2, F09B9.2b, T08H4.1, F45E10.1c, C01G10.11f.1, F28F9.1, D1007.1, M142.1c, ZC84.2, C05D11.4, F55C7.7a, F53C11.8.2, K09C8.5
GO:0022008	1.2976038157562042e-21	28/251	biological_process: neurogenesis	C52E12.2b, F26C11.2, F11A10.3a, Y60A3A.1.2, B0273.4a, T24B8.6, T07A5.6c, K07G5.1, F15A2.6a, B0240.3, W02D3.9.2, F40E10.4, F58A3.2c, C34F6.4, F36F2.5, ZK757.2, F09B9.2b, T08H4.1, F45E10.1c, C01G10.11f.1, F28F9.1, D1007.1, M142.1c, ZC84.2, C05D11.4, F55C7.7a, F53C11.8.2, K09C8.5
GO:2000026	7.890188738767518e-20	29/320	biological_process: regulation of multicellular organismal development	C52E12.2b, F26C11.2, F59G1.5.1, F11A10.3a, Y60A3A.1.2, B0273.4a, T24B8.6, T07A5.6c, K07G5.1, F15A2.6a, B0240.3, W02D3.9.2, C14F5.5, F40E10.4, C34F6.4, F36F2.5, ZK757.2, ZK792.6, T08H4.1, F45E10.1c, C01G10.11f.1, F28F9.1, D1007.1, M142.1c, ZC84.2, C05D11.4, F55C7.7a, F53C11.8.2, K09C8.5
GO:0007399	1.2480257115339736e-18	26/266	biological_process: nervous system development	C52E12.2b, F11A10.3a, B0273.4a, T24B8.6, T07A5.6c, K07G5.1, F15A2.6a, B0240.3, W02D3.9.2, F40E10.4, F58A3.2c, C34F6.4, F36F2.5, ZK757.2, F09B9.2b, T08H4.1, F45E10.1c, C01G10.11f.1, F28F9.1, D1007.1, M142.1c, ZC84.2, C05D11.4, F55C7.7a, F53C11.8.2, K09C8.5
GO:0048812	2.3500378660325305e-12	14/104	biological_process: neuron projection morphogenesis	F40E10.4, F58A3.2c, F45E10.1c, B0273.4a, Y60A3A.1.2, F28F9.1, K07G5.1, D1007.1, F15A2.6a, ZC84.2, F36F2.5, F55C7.7a, K09C8.5, F09B9.2b
GO:0000902	4.216146157786693e-12	16/156	biological_process: cell morphogenesis	F58A3.2c, F40E10.4, F45E10.1c, B0273.4a, Y60A3A.1.2, F28F9.1, K07G5.1, D1007.1, F15A2.6a, F36F2.5, M142.1c, ZC84.2, F55C7.7a, K09C8.5, F09B9.2b, T08H4.1
GO:0030182	4.849030182070425e-12	18/213	biological_process: neuron differentiation	F40E10.4, F58A3.2c, F45E10.1c, F26C11.2, C34F6.4, B0273.4a, T24B8.6, C01G10.11f.1, Y60A3A.1.2, F28F9.1, K07G5.1, D1007.1, F15A2.6a, F36F2.5, ZC84.2, F55C7.7a, K09C8.5, F09B9.2b
GO:0031345	7.008681675756596e-12	6/7	biological_process: negative regulation of cell projection organization	F40E10.4, F10G8.6, M142.1c, C05D11.4, K09C8.5, T08H4.1
GO:1902667	7.008681675756596e-12	6/7	biological_process: regulation of axon guidance	F40E10.4, T24B8.6, F11A10.3a, K07G5.1, C05D11.4, C34F6.4
GO:0050793	7.877579303563515e-12	30/691	biological_process: regulation of developmental process	C52E12.2b, F26C11.2, F59G1.5.1, F11A10.3a, Y60A3A.1.2, F10G8.6, B0273.4a, T24B8.6, T07A5.6c, K07G5.1, F15A2.6a, B0240.3, W02D3.9.2, C14F5.5, F40E10.4, C34F6.4, F36F2.5, ZK757.2, ZK792.6, T08H4.1, F45E10.1c, C01G10.11f.1, F28F9.1, D1007.1, M142.1c, ZC84.2, C05D11.4, F55C7.7a, F53C11.8.2, K09C8.5
GO:0048666	1.5446607946103573e-11	17/198	biological_process: neuron development	F58A3.2c, F40E10.4, F45E10.1c, F26C11.2, C34F6.4, B0273.4a, C01G10.11f.1, Y60A3A.1.2, F28F9.1, K07G5.1, D1007.1, F15A2.6a, F36F2.5, ZC84.2, F55C7.7a, K09C8.5, F09B9.2b
GO:0048858	1.6473159037687515e-11	15/144	biological_process: cell projection morphogenesis	F58A3.2c, F40E10.4, F45E10.1c, B0273.4a, Y60A3A.1.2, F28F9.1, K07G5.1, D1007.1, F15A2.6a, F36F2.5, M142.1c, ZC84.2, F55C7.7a, K09C8.5, F09B9.2b
GO:0032990	2.452763018566172e-11	15/148	biological_process: cell part morphogenesis	F58A3.2c, F40E10.4, F45E10.1c, B0273.4a, Y60A3A.1.2, F28F9.1, K07G5.1, D1007.1, F15A2.6a, F36F2.5, M142.1c, ZC84.2, F55C7.7a, K09C8.5, F09B9.2b
GO:0031175	4.867159371040616e-11	16/183	biological_process: neuron projection development	F58A3.2c, F40E10.4, F45E10.1c, C34F6.4, B0273.4a, C01G10.11f.1, Y60A3A.1.2, F28F9.1, K07G5.1, D1007.1, F15A2.6a, F36F2.5, ZC84.2, F55C7.7a, K09C8.5, F09B9.2b
GO:0051239	1.8855674200445665e-10	29/735	biological_process: regulation of multicellular organismal process	C52E12.2b, F26C11.2, F59G1.5.1, F11A10.3a, Y60A3A.1.2, B0273.4a, T24B8.6, T07A5.6c, K07G5.1, F15A2.6a, B0240.3, W02D3.9.2, C14F5.5, F40E10.4, C34F6.4, F36F2.5, ZK757.2, ZK792.6, T08H4.1, F45E10.1c, C01G10.11f.1, F28F9.1, D1007.1, M142.1c, ZC84.2, C05D11.4, F55C7.7a, F53C11.8.2, K09C8.5
GO:0006935	2.4384422785289766e-10	13/120	biological_process: chemotaxis	F40E10.4, F58A3.2c, F45E10.1c, B0273.4a, Y60A3A.1.2, F28F9.1, K07G5.1, D1007.1, F15A2.6a, ZC84.2, F36F2.5, F55C7.7a, K09C8.5
GO:0048638	4.464839173855223e-10	21/394	biological_process: regulation of developmental growth	C52E12.2b, F11A10.3a, Y60A3A.1.2, B0273.4a, T24B8.6, T07A5.6c, K07G5.1, F15A2.6a, B0240.3, F40E10.4, C34F6.4, F36F2.5, F45E10.1c, C01G10.11f.1, F28F9.1, D1007.1, M142.1c, ZC84.2, C05D11.4, F55C7.7a, F53C11.8.2
GO:0042330	5.503764905401197e-10	13/128	biological_process: taxis	F58A3.2c, F40E10.4, F45E10.1c, B0273.4a, Y60A3A.1.2, F28F9.1, K07G5.1, D1007.1, F15A2.6a, F36F2.5, ZC84.2, F55C7.7a, K09C8.5
GO:0048841	6.124014925105507e-10	5/6	biological_process: regulation of axon extension involved in axon guidance	F40E10.4, T24B8.6, F11A10.3a, K07G5.1, C05D11.4
GO:0007411	8.018480993012942e-10	11/84	biological_process: axon guidance	F40E10.4, F58A3.2c, F45E10.1c, B0273.4a, Y60A3A.1.2, F28F9.1, K07G5.1, D1007.1, F15A2.6a, F55C7.7a, K09C8.5
GO:0097485	8.018480993012942e-10	11/84	biological_process: neuron projection guidance	F40E10.4, F58A3.2c, F45E10.1c, B0273.4a, Y60A3A.1.2, F28F9.1, K07G5.1, D1007.1, F15A2.6a, F55C7.7a, K09C8.5
GO:0030030	8.126156780291317e-10	16/221	biological_process: cell projection organization	F58A3.2c, F40E10.4, F45E10.1c, C34F6.4, B0273.4a, C01G10.11f.1, Y60A3A.1.2, F28F9.1, K07G5.1, D1007.1, F15A2.6a, F36F2.5, ZC84.2, F55C7.7a, K09C8.5, F09B9.2b
GO:0040008	9.62680218161135e-10	21/411	biological_process: regulation of growth	C52E12.2b, F11A10.3a, Y60A3A.1.2, B0273.4a, T24B8.6, T07A5.6c, K07G5.1, F15A2.6a, B0240.3, F40E10.4, C34F6.4, F36F2.5, F45E10.1c, C01G10.11f.1, F28F9.1, D1007.1, M142.1c, ZC84.2, C05D11.4, F55C7.7a, F53C11.8.2
GO:0051962	2.125883519631686e-09	5/7	biological_process: positive regulation of nervous system development	C52E12.2b, F45E10.1c, B0273.4a, F28F9.1, F55C7.7a
GO:0007409	3.067073506283613e-09	11/95	biological_process: axonogenesis	F40E10.4, F58A3.2c, F45E10.1c, B0273.4a, Y60A3A.1.2, F28F9.1, K07G5.1, D1007.1, F15A2.6a, F55C7.7a, K09C8.5
GO:0030154	4.188481865809886e-09	29/840	biological_process: cell differentiation	F33D4.2a, C52E12.2b, F59G1.5.1, F11A10.3a, B0273.4a, T24B8.6, T07A5.6c, K07G5.1, F15A2.6a, B0240.3, W02D3.9.2, F40E10.4, F58A3.2c, C34F6.4, F36F2.5, ZK757.2, ZK792.6, F09B9.2b, T08H4.1, F45E10.1c, C01G10.11f.1, F28F9.1, D1007.1, M142.1c, ZC84.2, C05D11.4, F55C7.7a, F53C11.8.2, K09C8.5
GO:0048667	4.784013316568293e-09	11/99	biological_process: cell morphogenesis involved in neuron differentiation	F40E10.4, F58A3.2c, F45E10.1c, B0273.4a, Y60A3A.1.2, F28F9.1, K07G5.1, D1007.1, F15A2.6a, F55C7.7a, K09C8.5
GO:0000904	5.329336032607426e-09	11/100	biological_process: cell morphogenesis involved in differentiation	F40E10.4, F58A3.2c, F45E10.1c, B0273.4a, Y60A3A.1.2, F28F9.1, K07G5.1, D1007.1, F15A2.6a, F55C7.7a, K09C8.5
GO:0007517	1.2724652356618673e-08	7/29	biological_process: muscle organ development	C14F5.5, F58A3.2c, F45E10.1c, F59G1.5.1, AC7.2a.2, ZK792.6, K09C8.5
GO:0032101	1.2724652356618673e-08	7/29	biological_process: regulation of response to external stimulus	F40E10.4, T24B8.6, F11A10.3a, K07G5.1, C05D11.4, C34F6.4, K09C8.5
GO:0048869	1.4634460402502367e-08	29/888	biological_process: cellular developmental process	F33D4.2a, C52E12.2b, F59G1.5.1, F11A10.3a, B0273.4a, T24B8.6, T07A5.6c, K07G5.1, F15A2.6a, B0240.3, W02D3.9.2, F40E10.4, F58A3.2c, C34F6.4, F36F2.5, ZK757.2, ZK792.6, F09B9.2b, T08H4.1, F45E10.1c, C01G10.11f.1, F28F9.1, D1007.1, M142.1c, ZC84.2, C05D11.4, F55C7.7a, F53C11.8.2, K09C8.5
GO:0050920	1.6952355217995836e-08	6/18	biological_process: regulation of chemotaxis	F40E10.4, T24B8.6, F11A10.3a, K07G5.1, C05D11.4, C34F6.4
GO:0051270	1.79311025735389e-08	9/65	biological_process: regulation of cellular component movement	F33D4.2a, F40E10.4, F45E10.1c, T24B8.6, F11A10.3a, K07G5.1, C05D11.4, C34F6.4, F53C11.8.2
GO:0010770	5.1595972522742795e-08	4/5	biological_process: positive regulation of cell morphogenesis involved in differentiation	F28F9.1, F55C7.7a, F45E10.1c, B0273.4a
GO:0010976	5.1595972522742795e-08	4/5	biological_process: positive regulation of neuron projection development	F28F9.1, F55C7.7a, F45E10.1c, B0273.4a
GO:0031346	5.1595972522742795e-08	4/5	biological_process: positive regulation of cell projection organization	F28F9.1, F55C7.7a, F45E10.1c, B0273.4a
GO:0045773	5.1595972522742795e-08	4/5	biological_process: positive regulation of axon extension	F28F9.1, F55C7.7a, F45E10.1c, B0273.4a
GO:0050772	5.1595972522742795e-08	4/5	biological_process: positive regulation of axonogenesis	F28F9.1, F55C7.7a, F45E10.1c, B0273.4a
GO:0060491	5.1595972522742795e-08	4/5	biological_process: regulation of cell projection assembly	F33D4.2a, F10G8.6, F09B9.2b, ZK757.2
GO:0010977	5.1595972522742795e-08	4/5	biological_process: negative regulation of neuron projection development	F40E10.4, M142.1c, K09C8.5, T08H4.1
GO:0045665	5.1595972522742795e-08	4/5	biological_process: negative regulation of neuron differentiation	F40E10.4, M142.1c, K09C8.5, T08H4.1
GO:0050768	5.1595972522742795e-08	4/5	biological_process: negative regulation of neurogenesis	F40E10.4, M142.1c, K09C8.5, T08H4.1
GO:0061564	6.60404887127327e-08	12/157	biological_process: axon development	F58A3.2c, F40E10.4, F45E10.1c, B0273.4a, C01G10.11f.1, Y60A3A.1.2, F28F9.1, K07G5.1, D1007.1, F15A2.6a, F55C7.7a, K09C8.5
GO:0040012	8.144503449249622e-08	12/160	biological_process: regulation of locomotion	F33D4.2a, F40E10.4, F45E10.1c, C34F6.4, B0273.4a, T24B8.6, F11A10.3a, K07G5.1, C05D11.4, F55C7.7a, F53C11.8.2, T08H4.1
GO:0032989	1.1492407752654794e-07	16/313	biological_process: cellular component morphogenesis	F58A3.2c, F40E10.4, F45E10.1c, B0273.4a, Y60A3A.1.2, F28F9.1, K07G5.1, D1007.1, F15A2.6a, F36F2.5, M142.1c, ZC84.2, F55C7.7a, K09C8.5, F09B9.2b, T08H4.1
GO:0051129	1.1522238558125858e-07	7/39	biological_process: negative regulation of cellular component organization	F40E10.4, F10G8.6, M142.1c, C05D11.4, F53C11.8.2, K09C8.5, T08H4.1
GO:0030307	1.5356311458482953e-07	4/6	biological_process: positive regulation of cell growth	F28F9.1, F55C7.7a, F45E10.1c, B0273.4a
GO:0045666	1.5356311458482953e-07	4/6	biological_process: positive regulation of neuron differentiation	F28F9.1, F55C7.7a, F45E10.1c, B0273.4a
GO:0050769	1.5356311458482953e-07	4/6	biological_process: positive regulation of neurogenesis	F28F9.1, F55C7.7a, F45E10.1c, B0273.4a
GO:0051961	1.5356311458482953e-07	4/6	biological_process: negative regulation of nervous system development	F40E10.4, M142.1c, K09C8.5, T08H4.1
GO:0065008	2.6332352181792325e-07	26/838	biological_process: regulation of biological quality	F33D4.2a, C52E12.2b, F26C11.2, F11A10.3a, Y60A3A.1.2, B0273.4a, T24B8.6, T07A5.6c, K07G5.1, F15A2.6a, B0240.3, W02D3.9.2, C14F5.5, F40E10.4, C34F6.4, F36F2.5, ZK757.2, F45E10.1c, C01G10.11f.1, F28F9.1, D1007.1, M142.1c, ZC84.2, C05D11.4, F55C7.7a, F53C11.8.2
GO:0050803	4.107203108214571e-07	5/16	biological_process: regulation of synapse structure or activity	C52E12.2b, F26C11.2, C01G10.11f.1, T07A5.6c, W02D3.9.2
GO:0010720	7.053361575508735e-07	4/8	biological_process: positive regulation of cell development	F28F9.1, F55C7.7a, F45E10.1c, B0273.4a
GO:0044087	1.0744384359155692e-06	6/34	biological_process: regulation of cellular component biogenesis	F33D4.2a, C52E12.2b, F10G8.6, ZK757.2, F55C7.7a, F09B9.2b
GO:0048731	1.7658791754560574e-06	30/1176	biological_process: system development	C52E12.2b, F59G1.5.1, AC7.2a.2, F11A10.3a, B0273.4a, T24B8.6, T07A5.6c, K07G5.1, F15A2.6a, B0240.3, W02D3.9.2, C14F5.5, F40E10.4, F58A3.2c, C34F6.4, F36F2.5, ZK757.2, ZK792.6, F09B9.2b, T08H4.1, F45E10.1c, C01G10.11f.1, F28F9.1, D1007.1, M142.1c, ZC84.2, C05D11.4, F55C7.7a, F53C11.8.2, K09C8.5
GO:0045597	2.0826847346142656e-06	4/10	biological_process: positive regulation of cell differentiation	F28F9.1, F55C7.7a, F45E10.1c, B0273.4a
GO:0010721	2.0826847346142656e-06	4/10	biological_process: negative regulation of cell development	F40E10.4, M142.1c, K09C8.5, T08H4.1
GO:0030424	2.2206238055874227e-06	9/113	cellular_component: axon	C52E12.2b, F26C11.2, C01G10.11f.1, T07A5.6c, Y60A3A.1.2, M142.1c, F15A2.6a, F55C7.7a, T08H4.1
GO:0043005	4.175935989351237e-06	11/192	cellular_component: neuron projection	C52E12.2b, F26C11.2, C01G10.11f.1, T07A5.6c, Y60A3A.1.2, M142.1c, F15A2.6a, ZC84.2, B0240.3, F55C7.7a, T08H4.1
GO:0048583	4.7462080284734765e-06	13/276	biological_process: regulation of response to stimulus	C14F5.5, F40E10.4, F33D4.2a, F59G1.5.1, T24B8.6, F11A10.3a, K07G5.1, M142.1c, B0240.3, C34F6.4, C05D11.4, K09C8.5, T08H4.1
GO:0045596	4.831914768868809e-06	4/12	biological_process: negative regulation of cell differentiation	F40E10.4, M142.1c, K09C8.5, T08H4.1
GO:0050795	5.934694518296495e-06	8/96	biological_process: regulation of behavior	F33D4.2a, F40E10.4, T24B8.6, F11A10.3a, K07G5.1, M142.1c, C05D11.4, C34F6.4
GO:0048468	6.787633914832621e-06	21/695	biological_process: cell development	F33D4.2a, F26C11.2, F59G1.5.1, Y60A3A.1.2, B0273.4a, K07G5.1, F15A2.6a, W02D3.9.2, F40E10.4, F58A3.2c, C34F6.4, F36F2.5, ZK792.6, F09B9.2b, F45E10.1c, C01G10.11f.1, F28F9.1, D1007.1, ZC84.2, F55C7.7a, K09C8.5
GO:0009605	7.535555696167077e-06	13/288	biological_process: response to external stimulus	F58A3.2c, F40E10.4, F45E10.1c, B0273.4a, Y60A3A.1.2, F28F9.1, K07G5.1, D1007.1, F15A2.6a, F36F2.5, ZC84.2, F55C7.7a, K09C8.5
GO:0008543	1.027125278559815e-05	3/5	biological_process: fibroblast growth factor receptor signaling pathway	F58A3.2c, AC7.2a.2, C05D11.4
GO:0044344	1.027125278559815e-05	3/5	biological_process: cellular response to fibroblast growth factor stimulus	F58A3.2c, AC7.2a.2, C05D11.4
GO:0071774	1.027125278559815e-05	3/5	biological_process: response to fibroblast growth factor	F58A3.2c, AC7.2a.2, C05D11.4
GO:0032879	1.1753534773782957e-05	11/214	biological_process: regulation of localization	F33D4.2a, F40E10.4, F45E10.1c, T24B8.6, F11A10.3a, Y60A3A.1.2, K07G5.1, F36F2.5, C05D11.4, C34F6.4, F53C11.8.2
GO:0030334	2.6471344012665052e-05	6/58	biological_process: regulation of cell migration	F33D4.2a, F45E10.1c, F11A10.3a, K07G5.1, C34F6.4, F53C11.8.2
GO:2000145	3.5418572396473785e-05	6/61	biological_process: regulation of cell motility	F33D4.2a, F45E10.1c, F11A10.3a, K07G5.1, C34F6.4, F53C11.8.2
GO:0051130	3.942442658161639e-05	5/38	biological_process: positive regulation of cellular component organization	C52E12.2b, F45E10.1c, B0273.4a, F28F9.1, F55C7.7a
GO:0097458	6.590775022300682e-05	11/258	cellular_component: neuron part	C52E12.2b, F26C11.2, C01G10.11f.1, T07A5.6c, Y60A3A.1.2, M142.1c, F15A2.6a, ZC84.2, B0240.3, F55C7.7a, T08H4.1
GO:0006928	7.80241415811357e-05	13/360	biological_process: movement of cell or subcellular component	C14F5.5, F40E10.4, F58A3.2c, F45E10.1c, C34F6.4, B0273.4a, Y60A3A.1.2, F28F9.1, K07G5.1, D1007.1, F15A2.6a, F55C7.7a, K09C8.5
GO:0008078	0.00016202299905996432	3/11	biological_process: mesodermal cell migration	F55C7.7a, F45E10.1c, B0273.4a
GO:0050807	0.00016202299905996432	3/11	biological_process: regulation of synapse organization	C52E12.2b, T07A5.6c, C01G10.11f.1
GO:0048522	0.00016514093598972432	12/336	biological_process: positive regulation of cellular process	C14F5.5, C52E12.2b, F45E10.1c, B0273.4a, F59G1.5.1, T24B8.6, F28F9.1, F36F2.5, ZC84.2, B0240.3, F55C7.7a, T08H4.1
GO:0042995	0.0001970676992248458	11/292	cellular_component: cell projection	C52E12.2b, F26C11.2, C01G10.11f.1, T07A5.6c, Y60A3A.1.2, M142.1c, F15A2.6a, ZC84.2, B0240.3, F55C7.7a, T08H4.1
GO:0042221	0.0002311642103657752	17/632	biological_process: response to chemical	F40E10.4, F58A3.2c, F45E10.1c, B0273.4a, AC7.2a.2, Y60A3A.1.2, F28F9.1, K07G5.1, D1007.1, F15A2.6a, F36F2.5, M142.1c, B0240.3, ZC84.2, F55C7.7a, C05D11.4, K09C8.5
GO:0010591	0.00030890482766006655	2/3	biological_process: regulation of lamellipodium assembly	F09B9.2b, ZK757.2
GO:0051489	0.00030890482766006655	2/3	biological_process: regulation of filopodium assembly	F33D4.2a, F09B9.2b
GO:1902743	0.00030890482766006655	2/3	biological_process: regulation of lamellipodium organization	F09B9.2b, ZK757.2
GO:0010771	0.00030890482766006655	2/3	biological_process: negative regulation of cell morphogenesis involved in differentiation	F40E10.4, M142.1c
GO:0030517	0.00030890482766006655	2/3	biological_process: negative regulation of axon extension	F40E10.4, M142.1c
GO:0050771	0.00030890482766006655	2/3	biological_process: negative regulation of axonogenesis	F40E10.4, M142.1c
GO:0035020	0.00030890482766006655	2/3	biological_process: regulation of Rac protein signal transduction	F55C7.7a, K07G5.1
GO:0016043	0.0003845537940880832	25/1195	biological_process: cellular component organization	C52E12.2b, F26C11.2, F11A10.3a, Y60A3A.1.2, B0273.4a, T24B8.6, T07A5.6c, K07G5.1, F15A2.6a, B0240.3, F40E10.4, F58A3.2c, C34F6.4, F36F2.5, ZK757.2, T08H4.1, F45E10.1c, C01G10.11f.1, F28F9.1, D1007.1, ZC84.2, C05D11.4, F55C7.7a, F53C11.8.2, K09C8.5
GO:0016203	0.0006136701966121401	2/4	biological_process: muscle attachment	K09C8.5, F45E10.1c
GO:0060538	0.0006136701966121401	2/4	biological_process: skeletal muscle organ development	K09C8.5, F45E10.1c
GO:0009453	0.0006136701966121401	2/4	biological_process: energy taxis	F36F2.5, ZC84.2
GO:0009454	0.0006136701966121401	2/4	biological_process: aerotaxis	F36F2.5, ZC84.2
GO:0032102	0.0006136701966121401	2/4	biological_process: negative regulation of response to external stimulus	F40E10.4, K09C8.5
GO:0007169	0.0006486482410345489	4/39	biological_process: transmembrane receptor protein tyrosine kinase signaling pathway	F58A3.2c, AC7.2a.2, ZK792.6, C05D11.4
GO:0036477	0.0007080281040513653	7/145	cellular_component: somatodendritic compartment	C52E12.2b, C01G10.11f.1, T07A5.6c, Y60A3A.1.2, F15A2.6a, ZC84.2, B0240.3
GO:0071840	0.0007333365875831256	25/1248	biological_process: cellular component organization or biogenesis	C52E12.2b, F26C11.2, F11A10.3a, Y60A3A.1.2, B0273.4a, T24B8.6, T07A5.6c, K07G5.1, F15A2.6a, B0240.3, F40E10.4, F58A3.2c, C34F6.4, F36F2.5, ZK757.2, T08H4.1, F45E10.1c, C01G10.11f.1, F28F9.1, D1007.1, ZC84.2, C05D11.4, F55C7.7a, F53C11.8.2, K09C8.5
GO:0061061	0.000756883391880179	8/191	biological_process: muscle structure development	C14F5.5, F58A3.2c, F45E10.1c, F59G1.5.1, AC7.2a.2, K07G5.1, ZK792.6, K09C8.5
GO:0070848	0.000760436820966521	3/18	biological_process: response to growth factor	F58A3.2c, AC7.2a.2, C05D11.4
GO:0071363	0.000760436820966521	3/18	biological_process: cellular response to growth factor stimulus	F58A3.2c, AC7.2a.2, C05D11.4
GO:0009967	0.0008621134025136974	4/42	biological_process: positive regulation of signal transduction	F59G1.5.1, F55C7.7a, C14F5.5, B0240.3
