GO:0031344	1.1325230669252699e-56	34/35	biological_process: regulation of cell projection organization	D1007.1, ZK792.6, AC7.2a.2, K07G5.1, W02D3.9.2, C34F6.4, F15A2.6a, T08H4.1, K09C8.5, ZK757.2, T07A5.6c, F33D4.2a, F36F2.5, T24B8.6, F26C11.2, M142.1c, B0273.4a, B0240.3, F53C11.8.2, F59G1.5.1, C52E12.2b, C01G10.11f.1, F28F9.1, C05D11.4, Y60A3A.1.2, ZC84.2, F58A3.2c, F11A10.3a, F45E10.1c, C14F5.5, F10G8.6, F09B9.2b, F40E10.4, F55C7.7a
GO:0010975	3.3981326471361158e-43	26/27	biological_process: regulation of neuron projection development	D1007.1, K07G5.1, W02D3.9.2, C34F6.4, F15A2.6a, T08H4.1, K09C8.5, ZK757.2, T07A5.6c, F36F2.5, T24B8.6, F26C11.2, M142.1c, B0273.4a, B0240.3, F53C11.8.2, C52E12.2b, C01G10.11f.1, F28F9.1, C05D11.4, Y60A3A.1.2, ZC84.2, F11A10.3a, F45E10.1c, F40E10.4, F55C7.7a
GO:0010769	7.2169480113973465e-40	24/25	biological_process: regulation of cell morphogenesis involved in differentiation	D1007.1, K07G5.1, W02D3.9.2, C34F6.4, F15A2.6a, ZK757.2, T07A5.6c, F36F2.5, T24B8.6, F26C11.2, M142.1c, B0273.4a, B0240.3, F53C11.8.2, C52E12.2b, C01G10.11f.1, F28F9.1, C05D11.4, Y60A3A.1.2, ZC84.2, F11A10.3a, F45E10.1c, F40E10.4, F55C7.7a
GO:0050770	7.2169480113973465e-40	24/25	biological_process: regulation of axonogenesis	D1007.1, K07G5.1, W02D3.9.2, C34F6.4, F15A2.6a, ZK757.2, T07A5.6c, F36F2.5, T24B8.6, F26C11.2, M142.1c, B0273.4a, B0240.3, F53C11.8.2, C52E12.2b, C01G10.11f.1, F28F9.1, C05D11.4, Y60A3A.1.2, ZC84.2, F11A10.3a, F45E10.1c, F40E10.4, F55C7.7a
GO:0045664	1.1356301740002007e-39	26/37	biological_process: regulation of neuron differentiation	D1007.1, K07G5.1, W02D3.9.2, C34F6.4, F15A2.6a, T08H4.1, K09C8.5, ZK757.2, T07A5.6c, F36F2.5, T24B8.6, F26C11.2, M142.1c, B0273.4a, B0240.3, F53C11.8.2, C52E12.2b, C01G10.11f.1, F28F9.1, C05D11.4, Y60A3A.1.2, ZC84.2, F11A10.3a, F45E10.1c, F40E10.4, F55C7.7a
GO:0050767	1.1356301740002007e-39	26/37	biological_process: regulation of neurogenesis	D1007.1, K07G5.1, W02D3.9.2, C34F6.4, F15A2.6a, T08H4.1, K09C8.5, ZK757.2, T07A5.6c, F36F2.5, T24B8.6, F26C11.2, M142.1c, B0273.4a, B0240.3, F53C11.8.2, C52E12.2b, C01G10.11f.1, F28F9.1, C05D11.4, Y60A3A.1.2, ZC84.2, F11A10.3a, F45E10.1c, F40E10.4, F55C7.7a
GO:0051960	2.2541628268171727e-39	26/38	biological_process: regulation of nervous system development	D1007.1, K07G5.1, W02D3.9.2, C34F6.4, F15A2.6a, T08H4.1, K09C8.5, ZK757.2, T07A5.6c, F36F2.5, T24B8.6, B0273.4a, F26C11.2, M142.1c, F53C11.8.2, B0240.3, C52E12.2b, C01G10.11f.1, F28F9.1, C05D11.4, Y60A3A.1.2, ZC84.2, F11A10.3a, F45E10.1c, F40E10.4, F55C7.7a
GO:0022604	4.965362008050332e-38	25/36	biological_process: regulation of cell morphogenesis	D1007.1, K07G5.1, W02D3.9.2, C34F6.4, F15A2.6a, ZK757.2, T07A5.6c, F36F2.5, T24B8.6, F26C11.2, M142.1c, B0273.4a, B0240.3, F53C11.8.2, C52E12.2b, C01G10.11f.1, F28F9.1, C05D11.4, Y60A3A.1.2, ZC84.2, F11A10.3a, F45E10.1c, F10G8.6, F40E10.4, F55C7.7a
GO:0060284	3.0427364908633747e-37	26/46	biological_process: regulation of cell development	D1007.1, K07G5.1, W02D3.9.2, C34F6.4, F15A2.6a, T08H4.1, K09C8.5, ZK757.2, T07A5.6c, F36F2.5, T24B8.6, B0273.4a, M142.1c, F26C11.2, B0240.3, F53C11.8.2, C52E12.2b, C01G10.11f.1, F28F9.1, C05D11.4, Y60A3A.1.2, ZC84.2, F11A10.3a, F45E10.1c, F40E10.4, F55C7.7a
GO:0022603	6.00463928390589e-35	25/48	biological_process: regulation of anatomical structure morphogenesis	D1007.1, K07G5.1, W02D3.9.2, C34F6.4, F15A2.6a, ZK757.2, T07A5.6c, F36F2.5, T24B8.6, F26C11.2, M142.1c, B0273.4a, B0240.3, F53C11.8.2, C52E12.2b, C01G10.11f.1, F28F9.1, C05D11.4, Y60A3A.1.2, ZC84.2, F11A10.3a, F45E10.1c, F10G8.6, F40E10.4, F55C7.7a
GO:0030516	2.9226951363780858e-33	20/21	biological_process: regulation of axon extension	D1007.1, K07G5.1, F15A2.6a, T07A5.6c, F36F2.5, T24B8.6, B0273.4a, M142.1c, B0240.3, F53C11.8.2, C52E12.2b, C01G10.11f.1, F28F9.1, C05D11.4, Y60A3A.1.2, ZC84.2, F11A10.3a, F45E10.1c, F40E10.4, F55C7.7a
GO:0061387	2.9226951363780858e-33	20/21	biological_process: regulation of extent of cell growth	D1007.1, K07G5.1, F15A2.6a, T07A5.6c, F36F2.5, T24B8.6, B0273.4a, M142.1c, B0240.3, F53C11.8.2, C52E12.2b, C01G10.11f.1, F28F9.1, C05D11.4, Y60A3A.1.2, ZC84.2, F11A10.3a, F45E10.1c, F40E10.4, F55C7.7a
GO:0045595	5.0954308910796834e-33	27/78	biological_process: regulation of cell differentiation	D1007.1, ZK792.6, K07G5.1, W02D3.9.2, C34F6.4, F15A2.6a, T08H4.1, K09C8.5, ZK757.2, T07A5.6c, F36F2.5, T24B8.6, B0273.4a, M142.1c, F26C11.2, B0240.3, F53C11.8.2, C52E12.2b, C01G10.11f.1, F28F9.1, C05D11.4, Y60A3A.1.2, ZC84.2, F11A10.3a, F45E10.1c, F40E10.4, F55C7.7a
GO:0001558	4.240308914128156e-31	20/27	biological_process: regulation of cell growth	D1007.1, K07G5.1, F15A2.6a, T07A5.6c, F36F2.5, T24B8.6, B0273.4a, M142.1c, B0240.3, F53C11.8.2, C52E12.2b, C01G10.11f.1, F28F9.1, C05D11.4, Y60A3A.1.2, ZC84.2, F11A10.3a, F45E10.1c, F40E10.4, F55C7.7a
GO:0008361	2.2341785703930972e-29	20/33	biological_process: regulation of cell size	D1007.1, K07G5.1, F15A2.6a, T07A5.6c, F36F2.5, T24B8.6, B0273.4a, M142.1c, B0240.3, F53C11.8.2, C52E12.2b, C01G10.11f.1, F28F9.1, C05D11.4, Y60A3A.1.2, ZC84.2, F11A10.3a, F45E10.1c, F40E10.4, F55C7.7a
GO:0051128	7.033708206335268e-28	34/258	biological_process: regulation of cellular component organization	D1007.1, ZK792.6, AC7.2a.2, K07G5.1, W02D3.9.2, C34F6.4, F15A2.6a, T08H4.1, K09C8.5, ZK757.2, T07A5.6c, F33D4.2a, F36F2.5, T24B8.6, B0273.4a, M142.1c, F26C11.2, B0240.3, F53C11.8.2, F59G1.5.1, C52E12.2b, C01G10.11f.1, F28F9.1, C05D11.4, Y60A3A.1.2, ZC84.2, F58A3.2c, F11A10.3a, F45E10.1c, C14F5.5, F10G8.6, F09B9.2b, F40E10.4, F55C7.7a
GO:0032535	3.623329912755862e-27	21/52	biological_process: regulation of cellular component size	D1007.1, K07G5.1, F15A2.6a, ZK757.2, T07A5.6c, F36F2.5, T24B8.6, B0273.4a, M142.1c, F53C11.8.2, B0240.3, C52E12.2b, C01G10.11f.1, F28F9.1, C05D11.4, Y60A3A.1.2, ZC84.2, F11A10.3a, F45E10.1c, F40E10.4, F55C7.7a
GO:0090066	3.4187468292250813e-26	21/58	biological_process: regulation of anatomical structure size	D1007.1, K07G5.1, F15A2.6a, ZK757.2, T07A5.6c, F36F2.5, T24B8.6, B0273.4a, M142.1c, F53C11.8.2, B0240.3, C52E12.2b, C01G10.11f.1, F28F9.1, C05D11.4, Y60A3A.1.2, ZC84.2, F11A10.3a, F45E10.1c, F40E10.4, F55C7.7a
GO:0048699	3.572969641981467e-21	28/248	biological_process: generation of neurons	D1007.1, K07G5.1, W02D3.9.2, C34F6.4, F15A2.6a, T08H4.1, K09C8.5, ZK757.2, T07A5.6c, F36F2.5, T24B8.6, B0273.4a, M142.1c, F26C11.2, B0240.3, F53C11.8.2, C52E12.2b, C01G10.11f.1, F28F9.1, C05D11.4, Y60A3A.1.2, ZC84.2, F58A3.2c, F11A10.3a, F45E10.1c, F09B9.2b, F40E10.4, F55C7.7a
GO:0022008	4.888057745621141e-21	28/251	biological_process: neurogenesis	D1007.1, K07G5.1, W02D3.9.2, C34F6.4, F15A2.6a, T08H4.1, K09C8.5, ZK757.2, T07A5.6c, F36F2.5, T24B8.6, B0273.4a, M142.1c, F26C11.2, B0240.3, F53C11.8.2, C52E12.2b, C01G10.11f.1, F28F9.1, C05D11.4, Y60A3A.1.2, ZC84.2, F58A3.2c, F11A10.3a, F45E10.1c, F09B9.2b, F40E10.4, F55C7.7a
GO:2000026	2.287470750003659e-19	29/320	biological_process: regulation of multicellular organismal development	D1007.1, ZK792.6, K07G5.1, W02D3.9.2, C34F6.4, F15A2.6a, T08H4.1, K09C8.5, ZK757.2, T07A5.6c, F36F2.5, T24B8.6, B0273.4a, M142.1c, F26C11.2, B0240.3, F53C11.8.2, F59G1.5.1, C52E12.2b, C01G10.11f.1, F28F9.1, C05D11.4, Y60A3A.1.2, ZC84.2, F11A10.3a, F45E10.1c, C14F5.5, F40E10.4, F55C7.7a
GO:0007399	3.537418740268718e-18	26/266	biological_process: nervous system development	D1007.1, K07G5.1, W02D3.9.2, C34F6.4, F15A2.6a, T08H4.1, K09C8.5, ZK757.2, T07A5.6c, F36F2.5, T24B8.6, B0273.4a, M142.1c, B0240.3, F53C11.8.2, C52E12.2b, C01G10.11f.1, F28F9.1, C05D11.4, ZC84.2, F58A3.2c, F11A10.3a, F45E10.1c, F09B9.2b, F40E10.4, F55C7.7a
GO:0048812	5.1949879556470416e-12	14/104	biological_process: neuron projection morphogenesis	K09C8.5, D1007.1, F58A3.2c, F36F2.5, F45E10.1c, K07G5.1, F28F9.1, B0273.4a, F15A2.6a, F09B9.2b, Y60A3A.1.2, ZC84.2, F40E10.4, F55C7.7a
GO:0000902	8.138739474827254e-12	16/156	biological_process: cell morphogenesis	K09C8.5, D1007.1, F58A3.2c, F36F2.5, F45E10.1c, K07G5.1, F28F9.1, M142.1c, B0273.4a, F15A2.6a, F09B9.2b, Y60A3A.1.2, T08H4.1, ZC84.2, F40E10.4, F55C7.7a
GO:0030182	8.702240499269091e-12	18/213	biological_process: neuron differentiation	K09C8.5, D1007.1, F58A3.2c, F36F2.5, F45E10.1c, K07G5.1, T24B8.6, C01G10.11f.1, F28F9.1, B0273.4a, C34F6.4, F15A2.6a, F26C11.2, Y60A3A.1.2, F09B9.2b, ZC84.2, F40E10.4, F55C7.7a
GO:0050793	1.174065157482303e-11	30/691	biological_process: regulation of developmental process	D1007.1, ZK792.6, K07G5.1, W02D3.9.2, C34F6.4, F15A2.6a, T08H4.1, K09C8.5, ZK757.2, T07A5.6c, F36F2.5, T24B8.6, B0273.4a, M142.1c, F26C11.2, B0240.3, F53C11.8.2, F59G1.5.1, C52E12.2b, C01G10.11f.1, F28F9.1, C05D11.4, Y60A3A.1.2, ZC84.2, F11A10.3a, F45E10.1c, C14F5.5, F10G8.6, F40E10.4, F55C7.7a
GO:0048666	2.7072197586989065e-11	17/198	biological_process: neuron development	K09C8.5, D1007.1, F58A3.2c, F36F2.5, F45E10.1c, K07G5.1, C01G10.11f.1, F28F9.1, B0273.4a, C34F6.4, F15A2.6a, F26C11.2, Y60A3A.1.2, F09B9.2b, ZC84.2, F40E10.4, F55C7.7a
GO:0048858	3.0782152222050565e-11	15/144	biological_process: cell projection morphogenesis	K09C8.5, D1007.1, F58A3.2c, F36F2.5, F45E10.1c, K07G5.1, F28F9.1, M142.1c, B0273.4a, F15A2.6a, F09B9.2b, Y60A3A.1.2, ZC84.2, F40E10.4, F55C7.7a
GO:0032990	4.488256813285775e-11	15/148	biological_process: cell part morphogenesis	K09C8.5, D1007.1, F58A3.2c, F36F2.5, F45E10.1c, K07G5.1, F28F9.1, M142.1c, B0273.4a, F15A2.6a, F09B9.2b, Y60A3A.1.2, ZC84.2, F40E10.4, F55C7.7a
GO:0031175	8.333998139391065e-11	16/183	biological_process: neuron projection development	K09C8.5, D1007.1, F58A3.2c, F36F2.5, F45E10.1c, K07G5.1, C01G10.11f.1, F28F9.1, B0273.4a, C34F6.4, F15A2.6a, F09B9.2b, Y60A3A.1.2, ZC84.2, F40E10.4, F55C7.7a
GO:0031345	1.5543889188649396e-10	6/7	biological_process: negative regulation of cell projection organization	K09C8.5, F10G8.6, M142.1c, C05D11.4, F40E10.4, T08H4.1
GO:1902667	1.5543889188649396e-10	6/7	biological_process: regulation of axon guidance	F11A10.3a, T24B8.6, K07G5.1, C34F6.4, C05D11.4, F40E10.4
GO:0051239	2.622359999742099e-10	29/735	biological_process: regulation of multicellular organismal process	D1007.1, ZK792.6, K07G5.1, W02D3.9.2, C34F6.4, F15A2.6a, T08H4.1, K09C8.5, ZK757.2, T07A5.6c, F36F2.5, T24B8.6, B0273.4a, M142.1c, F26C11.2, B0240.3, F53C11.8.2, F59G1.5.1, C52E12.2b, C01G10.11f.1, F28F9.1, C05D11.4, Y60A3A.1.2, ZC84.2, F11A10.3a, F45E10.1c, C14F5.5, F40E10.4, F55C7.7a
GO:0006935	4.275057096237204e-10	13/120	biological_process: chemotaxis	K09C8.5, D1007.1, F58A3.2c, F36F2.5, F45E10.1c, K07G5.1, F28F9.1, B0273.4a, F15A2.6a, Y60A3A.1.2, ZC84.2, F40E10.4, F55C7.7a
GO:0048638	6.456865009446933e-10	21/394	biological_process: regulation of developmental growth	D1007.1, K07G5.1, C34F6.4, F15A2.6a, T07A5.6c, F36F2.5, T24B8.6, B0273.4a, M142.1c, B0240.3, F53C11.8.2, C52E12.2b, C01G10.11f.1, F28F9.1, C05D11.4, Y60A3A.1.2, ZC84.2, F11A10.3a, F45E10.1c, F40E10.4, F55C7.7a
GO:0042330	9.240772517120379e-10	13/128	biological_process: taxis	K09C8.5, D1007.1, F58A3.2c, F36F2.5, F45E10.1c, K07G5.1, F28F9.1, B0273.4a, F15A2.6a, Y60A3A.1.2, ZC84.2, F40E10.4, F55C7.7a
GO:0030030	1.2373253923977965e-09	16/221	biological_process: cell projection organization	K09C8.5, D1007.1, F58A3.2c, F36F2.5, F45E10.1c, K07G5.1, C01G10.11f.1, F28F9.1, B0273.4a, C34F6.4, F15A2.6a, F09B9.2b, Y60A3A.1.2, ZC84.2, F40E10.4, F55C7.7a
GO:0040008	1.3616625235611537e-09	21/411	biological_process: regulation of growth	D1007.1, K07G5.1, C34F6.4, F15A2.6a, T07A5.6c, F36F2.5, T24B8.6, B0273.4a, M142.1c, B0240.3, F53C11.8.2, C52E12.2b, C01G10.11f.1, F28F9.1, C05D11.4, Y60A3A.1.2, ZC84.2, F11A10.3a, F45E10.1c, F40E10.4, F55C7.7a
GO:0007411	1.4444766305995468e-09	11/84	biological_process: axon guidance	K09C8.5, D1007.1, F58A3.2c, F45E10.1c, K07G5.1, F28F9.1, B0273.4a, F15A2.6a, Y60A3A.1.2, F40E10.4, F55C7.7a
GO:0097485	1.4444766305995468e-09	11/84	biological_process: neuron projection guidance	K09C8.5, D1007.1, F58A3.2c, F45E10.1c, K07G5.1, F28F9.1, B0273.4a, F15A2.6a, Y60A3A.1.2, F40E10.4, F55C7.7a
GO:0007409	5.09080439744316e-09	11/95	biological_process: axonogenesis	K09C8.5, D1007.1, F58A3.2c, F45E10.1c, K07G5.1, F28F9.1, B0273.4a, F15A2.6a, Y60A3A.1.2, F40E10.4, F55C7.7a
GO:0030154	5.447212939778734e-09	29/840	biological_process: cell differentiation	D1007.1, ZK792.6, K07G5.1, W02D3.9.2, C34F6.4, F15A2.6a, T08H4.1, K09C8.5, ZK757.2, T07A5.6c, F33D4.2a, F36F2.5, T24B8.6, B0273.4a, M142.1c, B0240.3, F53C11.8.2, F59G1.5.1, C52E12.2b, C01G10.11f.1, F28F9.1, C05D11.4, ZC84.2, F58A3.2c, F11A10.3a, F45E10.1c, F09B9.2b, F40E10.4, F55C7.7a
GO:0048841	6.344228440120858e-09	5/6	biological_process: regulation of axon extension involved in axon guidance	F11A10.3a, T24B8.6, K07G5.1, C05D11.4, F40E10.4
GO:0048667	7.744124146177485e-09	11/99	biological_process: cell morphogenesis involved in neuron differentiation	K09C8.5, D1007.1, F58A3.2c, F45E10.1c, K07G5.1, F28F9.1, B0273.4a, F15A2.6a, Y60A3A.1.2, F40E10.4, F55C7.7a
GO:0000904	8.575800925857116e-09	11/100	biological_process: cell morphogenesis involved in differentiation	K09C8.5, D1007.1, F58A3.2c, F45E10.1c, K07G5.1, F28F9.1, B0273.4a, F15A2.6a, Y60A3A.1.2, F40E10.4, F55C7.7a
GO:0051962	1.3600886038619442e-08	5/7	biological_process: positive regulation of nervous system development	C52E12.2b, F45E10.1c, B0273.4a, F28F9.1, F55C7.7a
GO:0048869	1.8562374500276943e-08	29/888	biological_process: cellular developmental process	D1007.1, ZK792.6, K07G5.1, W02D3.9.2, C34F6.4, F15A2.6a, T08H4.1, K09C8.5, ZK757.2, T07A5.6c, F33D4.2a, F36F2.5, T24B8.6, B0273.4a, M142.1c, B0240.3, F53C11.8.2, F59G1.5.1, C52E12.2b, C01G10.11f.1, F28F9.1, C05D11.4, ZC84.2, F58A3.2c, F11A10.3a, F45E10.1c, F09B9.2b, F40E10.4, F55C7.7a
GO:0007517	2.628376742907823e-08	7/29	biological_process: muscle organ development	K09C8.5, F59G1.5.1, ZK792.6, AC7.2a.2, F58A3.2c, C14F5.5, F45E10.1c
GO:0032101	2.628376742907823e-08	7/29	biological_process: regulation of response to external stimulus	K09C8.5, F11A10.3a, T24B8.6, K07G5.1, C34F6.4, C05D11.4, F40E10.4
GO:0051270	2.9635194105776733e-08	9/65	biological_process: regulation of cellular component movement	F33D4.2a, F11A10.3a, T24B8.6, K07G5.1, F45E10.1c, C34F6.4, C05D11.4, F40E10.4, F53C11.8.2
GO:0050920	4.100529185229232e-08	6/18	biological_process: regulation of chemotaxis	F11A10.3a, T24B8.6, K07G5.1, C34F6.4, C05D11.4, F40E10.4
GO:0061564	9.18168643248062e-08	12/157	biological_process: axon development	K09C8.5, D1007.1, F58A3.2c, F45E10.1c, K07G5.1, C01G10.11f.1, F28F9.1, B0273.4a, F15A2.6a, Y60A3A.1.2, F40E10.4, F55C7.7a
GO:0040012	1.1231415191953144e-07	12/160	biological_process: regulation of locomotion	F33D4.2a, F11A10.3a, F45E10.1c, K07G5.1, T24B8.6, B0273.4a, C34F6.4, C05D11.4, T08H4.1, F40E10.4, F55C7.7a, F53C11.8.2
GO:0032989	1.4874505333998733e-07	16/313	biological_process: cellular component morphogenesis	K09C8.5, D1007.1, F58A3.2c, F36F2.5, F45E10.1c, K07G5.1, F28F9.1, M142.1c, B0273.4a, F15A2.6a, F09B9.2b, Y60A3A.1.2, T08H4.1, ZC84.2, F40E10.4, F55C7.7a
GO:0051129	1.9221948891822308e-07	7/39	biological_process: negative regulation of cellular component organization	K09C8.5, F10G8.6, M142.1c, C05D11.4, F40E10.4, T08H4.1, F53C11.8.2
GO:0010770	2.602430119625622e-07	4/5	biological_process: positive regulation of cell morphogenesis involved in differentiation	F45E10.1c, F55C7.7a, F28F9.1, B0273.4a
GO:0010976	2.602430119625622e-07	4/5	biological_process: positive regulation of neuron projection development	F45E10.1c, F55C7.7a, F28F9.1, B0273.4a
GO:0031346	2.602430119625622e-07	4/5	biological_process: positive regulation of cell projection organization	F45E10.1c, F55C7.7a, F28F9.1, B0273.4a
GO:0045773	2.602430119625622e-07	4/5	biological_process: positive regulation of axon extension	F45E10.1c, F55C7.7a, F28F9.1, B0273.4a
GO:0050772	2.602430119625622e-07	4/5	biological_process: positive regulation of axonogenesis	F45E10.1c, F55C7.7a, F28F9.1, B0273.4a
GO:0060491	2.602430119625622e-07	4/5	biological_process: regulation of cell projection assembly	F33D4.2a, ZK757.2, F09B9.2b, F10G8.6
GO:0010977	2.602430119625622e-07	4/5	biological_process: negative regulation of neuron projection development	K09C8.5, M142.1c, F40E10.4, T08H4.1
GO:0045665	2.602430119625622e-07	4/5	biological_process: negative regulation of neuron differentiation	K09C8.5, M142.1c, F40E10.4, T08H4.1
GO:0050768	2.602430119625622e-07	4/5	biological_process: negative regulation of neurogenesis	K09C8.5, M142.1c, F40E10.4, T08H4.1
GO:0065008	3.188536062279761e-07	26/838	biological_process: regulation of biological quality	D1007.1, K07G5.1, W02D3.9.2, C34F6.4, F15A2.6a, ZK757.2, T07A5.6c, F33D4.2a, F36F2.5, T24B8.6, B0273.4a, M142.1c, F26C11.2, B0240.3, F53C11.8.2, C52E12.2b, C01G10.11f.1, F28F9.1, C05D11.4, Y60A3A.1.2, ZC84.2, F11A10.3a, F45E10.1c, C14F5.5, F40E10.4, F55C7.7a
GO:0030307	5.353931098516805e-07	4/6	biological_process: positive regulation of cell growth	F45E10.1c, F55C7.7a, B0273.4a, F28F9.1
GO:0045666	5.353931098516805e-07	4/6	biological_process: positive regulation of neuron differentiation	F45E10.1c, F55C7.7a, B0273.4a, F28F9.1
GO:0050769	5.353931098516805e-07	4/6	biological_process: positive regulation of neurogenesis	F45E10.1c, F55C7.7a, B0273.4a, F28F9.1
GO:0051961	5.353931098516805e-07	4/6	biological_process: negative regulation of nervous system development	K09C8.5, M142.1c, F40E10.4, T08H4.1
GO:0050803	7.88485145782322e-07	5/16	biological_process: regulation of synapse structure or activity	T07A5.6c, C52E12.2b, C01G10.11f.1, W02D3.9.2, F26C11.2
GO:0044087	1.6304973203714088e-06	6/34	biological_process: regulation of cellular component biogenesis	ZK757.2, C52E12.2b, F33D4.2a, F10G8.6, F09B9.2b, F55C7.7a
GO:0010720	1.6655891627258709e-06	4/8	biological_process: positive regulation of cell development	F45E10.1c, F55C7.7a, B0273.4a, F28F9.1
GO:0048731	2.0526841072856423e-06	30/1176	biological_process: system development	D1007.1, ZK792.6, AC7.2a.2, K07G5.1, W02D3.9.2, C34F6.4, F15A2.6a, T08H4.1, K09C8.5, ZK757.2, T07A5.6c, F36F2.5, T24B8.6, B0273.4a, M142.1c, B0240.3, F53C11.8.2, F59G1.5.1, C52E12.2b, C01G10.11f.1, F28F9.1, C05D11.4, ZC84.2, F58A3.2c, F11A10.3a, F45E10.1c, C14F5.5, F09B9.2b, F40E10.4, F55C7.7a
GO:0030424	2.856290881738665e-06	9/113	cellular_component: axon	T07A5.6c, C52E12.2b, C01G10.11f.1, F26C11.2, M142.1c, F15A2.6a, Y60A3A.1.2, T08H4.1, F55C7.7a
GO:0045597	4.0026881339747095e-06	4/10	biological_process: positive regulation of cell differentiation	F45E10.1c, F55C7.7a, B0273.4a, F28F9.1
GO:0010721	4.0026881339747095e-06	4/10	biological_process: negative regulation of cell development	K09C8.5, M142.1c, F40E10.4, T08H4.1
GO:0043005	5.106717396629835e-06	11/192	cellular_component: neuron projection	T07A5.6c, C52E12.2b, C01G10.11f.1, F26C11.2, M142.1c, F15A2.6a, Y60A3A.1.2, ZC84.2, T08H4.1, F55C7.7a, B0240.3
GO:0048583	5.68927858475772e-06	13/276	biological_process: regulation of response to stimulus	K09C8.5, F59G1.5.1, F33D4.2a, F11A10.3a, T24B8.6, K07G5.1, C14F5.5, C34F6.4, M142.1c, C05D11.4, T08H4.1, F40E10.4, B0240.3
GO:0050795	7.4933023150855545e-06	8/96	biological_process: regulation of behavior	F33D4.2a, F11A10.3a, T24B8.6, K07G5.1, C34F6.4, M142.1c, C05D11.4, F40E10.4
GO:0048468	7.834528366979114e-06	21/695	biological_process: cell development	D1007.1, ZK792.6, K07G5.1, W02D3.9.2, C34F6.4, F15A2.6a, K09C8.5, F33D4.2a, F36F2.5, B0273.4a, F26C11.2, F59G1.5.1, C01G10.11f.1, F28F9.1, Y60A3A.1.2, ZC84.2, F58A3.2c, F45E10.1c, F09B9.2b, F40E10.4, F55C7.7a
GO:0045596	8.170040792170734e-06	4/12	biological_process: negative regulation of cell differentiation	K09C8.5, M142.1c, F40E10.4, T08H4.1
GO:0009605	8.928521209987931e-06	13/288	biological_process: response to external stimulus	K09C8.5, D1007.1, F58A3.2c, F36F2.5, F45E10.1c, K07G5.1, F28F9.1, B0273.4a, F15A2.6a, Y60A3A.1.2, ZC84.2, F40E10.4, F55C7.7a
GO:0032879	1.3954820529595579e-05	11/214	biological_process: regulation of localization	F33D4.2a, F36F2.5, F11A10.3a, F45E10.1c, K07G5.1, T24B8.6, C34F6.4, C05D11.4, Y60A3A.1.2, F40E10.4, F53C11.8.2
GO:0008543	2.0920424490207917e-05	3/5	biological_process: fibroblast growth factor receptor signaling pathway	C05D11.4, AC7.2a.2, F58A3.2c
GO:0044344	2.0920424490207917e-05	3/5	biological_process: cellular response to fibroblast growth factor stimulus	C05D11.4, AC7.2a.2, F58A3.2c
GO:0071774	2.0920424490207917e-05	3/5	biological_process: response to fibroblast growth factor	C05D11.4, AC7.2a.2, F58A3.2c
GO:0030334	3.292864889122176e-05	6/58	biological_process: regulation of cell migration	F33D4.2a, F11A10.3a, F45E10.1c, K07G5.1, C34F6.4, F53C11.8.2
GO:2000145	4.34707590672552e-05	6/61	biological_process: regulation of cell motility	F33D4.2a, F11A10.3a, F45E10.1c, K07G5.1, C34F6.4, F53C11.8.2
GO:0051130	4.981754180867246e-05	5/38	biological_process: positive regulation of cellular component organization	C52E12.2b, F45E10.1c, F28F9.1, B0273.4a, F55C7.7a
GO:0097458	7.493842810596925e-05	11/258	cellular_component: neuron part	T07A5.6c, C52E12.2b, C01G10.11f.1, F26C11.2, M142.1c, F15A2.6a, Y60A3A.1.2, ZC84.2, T08H4.1, F55C7.7a, B0240.3
GO:0006928	8.771802693451582e-05	13/360	biological_process: movement of cell or subcellular component	K09C8.5, D1007.1, F58A3.2c, C14F5.5, F45E10.1c, K07G5.1, F28F9.1, B0273.4a, C34F6.4, F15A2.6a, Y60A3A.1.2, F40E10.4, F55C7.7a
GO:0048522	0.00018341702790246225	12/336	biological_process: positive regulation of cellular process	F59G1.5.1, C52E12.2b, F36F2.5, C14F5.5, F45E10.1c, T24B8.6, F28F9.1, B0273.4a, ZC84.2, T08H4.1, F55C7.7a, B0240.3
GO:0008078	0.0002130175055070811	3/11	biological_process: mesodermal cell migration	F45E10.1c, F55C7.7a, B0273.4a
GO:0050807	0.0002130175055070811	3/11	biological_process: regulation of synapse organization	C01G10.11f.1, T07A5.6c, C52E12.2b
GO:0042995	0.00021876044234736143	11/292	cellular_component: cell projection	T07A5.6c, C52E12.2b, C01G10.11f.1, F26C11.2, M142.1c, F15A2.6a, Y60A3A.1.2, ZC84.2, T08H4.1, F55C7.7a, B0240.3
GO:0042221	0.0002527651696312987	17/632	biological_process: response to chemical	K09C8.5, D1007.1, AC7.2a.2, F58A3.2c, F36F2.5, F45E10.1c, K07G5.1, B0273.4a, M142.1c, F28F9.1, F15A2.6a, C05D11.4, Y60A3A.1.2, ZC84.2, F40E10.4, F55C7.7a, B0240.3
GO:0016043	0.00041454953754528596	25/1195	biological_process: cellular component organization	D1007.1, K07G5.1, C34F6.4, F15A2.6a, T08H4.1, K09C8.5, ZK757.2, T07A5.6c, F36F2.5, T24B8.6, B0273.4a, F26C11.2, B0240.3, F53C11.8.2, C52E12.2b, C01G10.11f.1, F28F9.1, C05D11.4, Y60A3A.1.2, ZC84.2, F58A3.2c, F11A10.3a, F45E10.1c, F40E10.4, F55C7.7a
GO:0010591	0.00045716925094699463	2/3	biological_process: regulation of lamellipodium assembly	ZK757.2, F09B9.2b
GO:0051489	0.00045716925094699463	2/3	biological_process: regulation of filopodium assembly	F33D4.2a, F09B9.2b
GO:1902743	0.00045716925094699463	2/3	biological_process: regulation of lamellipodium organization	ZK757.2, F09B9.2b
GO:0010771	0.00045716925094699463	2/3	biological_process: negative regulation of cell morphogenesis involved in differentiation	M142.1c, F40E10.4
GO:0030517	0.00045716925094699463	2/3	biological_process: negative regulation of axon extension	M142.1c, F40E10.4
GO:0050771	0.00045716925094699463	2/3	biological_process: negative regulation of axonogenesis	M142.1c, F40E10.4
GO:0035020	0.00045716925094699463	2/3	biological_process: regulation of Rac protein signal transduction	K07G5.1, F55C7.7a
GO:0007169	0.0007372547913450699	4/39	biological_process: transmembrane receptor protein tyrosine kinase signaling pathway	C05D11.4, ZK792.6, AC7.2a.2, F58A3.2c
GO:0036477	0.0007765739935805452	7/145	cellular_component: somatodendritic compartment	T07A5.6c, C52E12.2b, C01G10.11f.1, F15A2.6a, Y60A3A.1.2, ZC84.2, B0240.3
GO:0071840	0.0007837265918447244	25/1248	biological_process: cellular component organization or biogenesis	D1007.1, K07G5.1, C34F6.4, F15A2.6a, T08H4.1, K09C8.5, ZK757.2, T07A5.6c, F36F2.5, T24B8.6, B0273.4a, F26C11.2, B0240.3, F53C11.8.2, C52E12.2b, C01G10.11f.1, F28F9.1, C05D11.4, Y60A3A.1.2, ZC84.2, F58A3.2c, F11A10.3a, F45E10.1c, F40E10.4, F55C7.7a
GO:0016203	0.0008073293762315928	2/4	biological_process: muscle attachment	K09C8.5, F45E10.1c
GO:0060538	0.0008073293762315928	2/4	biological_process: skeletal muscle organ development	K09C8.5, F45E10.1c
GO:0009453	0.0008073293762315928	2/4	biological_process: energy taxis	F36F2.5, ZC84.2
GO:0009454	0.0008073293762315928	2/4	biological_process: aerotaxis	F36F2.5, ZC84.2
GO:0032102	0.0008073293762315928	2/4	biological_process: negative regulation of response to external stimulus	F40E10.4, K09C8.5
GO:0061061	0.0008251895931742157	8/191	biological_process: muscle structure development	K09C8.5, F59G1.5.1, ZK792.6, AC7.2a.2, F58A3.2c, C14F5.5, F45E10.1c, K07G5.1
